counter/test.vcd
$date
	Thu Jul 15 23:00:44 2021
$end

$version
	Synopsys VCS version R-2020.12-SP1_Full64
$end

$timescale
	1s
$end

$comment Csum: 1 6623c6ac86b21646 $end


$scope module test $end
$var reg 1 ! reset $end
$var reg 1 " clk $end
$var wire 8 # value [7:0] $end

$scope module c1 $end
$var reg 8 $ out [7:0] $end
$var wire 1 % clk $end
$var wire 1 & reset $end
$upscope $end

$upscope $end

$enddefinitions $end

#0
$dumpvars
0&
0"
0!
bxxxxxxxx $
bxxxxxxxx #
0%
$end
#1
1"
1%
#2
0"
0%
#3
1"
1%
#4
0"
0%
#5
1"
1%
#6
0"
0%
#7
1"
1%
#8
0"
0%
#9
1"
1%
#10
0"
0%
#11
1"
1%
#12
0"
0%
#13
1"
1%
#14
0"
0%
#15
1"
1%
#16
0"
0%
#17
1!
1&
1"
1%
b00000000 $
b00000000 #
#18
0"
0%
#19
1"
1%
#20
0"
0%
#21
1"
1%
#22
0"
0%
#23
1"
1%
#24
0"
0%
#25
1"
1%
#26
0"
0%
#27
1"
1%
#28
0!
0&
0"
0%
#29
1"
1%
b00000001 $
b00000001 #
#30
0"
0%
#31
1"
1%
b00000010 $
b00000010 #
#32
0"
0%
#33
1"
1%
b00000011 $
b00000011 #
#34
0"
0%
#35
1"
1%
b00000100 $
b00000100 #
#36
0"
0%
#37
1"
1%
b00000101 $
b00000101 #
#38
0"
0%
#39
1"
1%
b00000110 $
b00000110 #
#40
0"
0%
#41
1"
1%
b00000111 $
b00000111 #
#42
0"
0%
#43
1"
1%
b00001000 $
b00001000 #
#44
0"
0%
#45
1"
1%
b00001001 $
b00001001 #
#46
0"
0%
#47
1"
1%
b00001010 $
b00001010 #
#48
0"
0%
#49
1"
1%
b00001011 $
b00001011 #
#50
0"
0%
#51
1"
1%
b00001100 $
b00001100 #
#52
0"
0%
#53
1"
1%
b00001101 $
b00001101 #
#54
0"
0%
#55
1"
1%
b00001110 $
b00001110 #
#56
0"
0%
#57
1!
1&
1"
1%
b00000000 $
b00000000 #
#58
0"
0%
#59
1"
1%
#60
0"
0%
#61
1"
1%
#62
0!
0&
0"
0%
#63
1"
1%
b00000001 $
b00000001 #
#64
0"
0%
#65
1"
1%
b00000010 $
b00000010 #
#66
0"
0%
#67
1"
1%
b00000011 $
b00000011 #
#68
0"
0%
#69
1"
1%
b00000100 $
b00000100 #
#70
0"
0%
#71
1"
1%
b00000101 $
b00000101 #
#72
0"
0%
#73
1"
1%
b00000110 $
b00000110 #
#74
0"
0%
#75
1"
1%
b00000111 $
b00000111 #
#76
0"
0%
#77
1"
1%
b00001000 $
b00001000 #
#78
0"
0%
#79
1"
1%
b00001001 $
b00001001 #
#80
0"
0%
#81
1"
1%
b00001010 $
b00001010 #
#82
0"
0%
#83
1"
1%
b00001011 $
b00001011 #
#84
0"
0%
#85
1"
1%
b00001100 $
b00001100 #
#86
0"
0%
#87
1"
1%
b00001101 $
b00001101 #
#88
0"
0%
#89
1"
1%
b00001110 $
b00001110 #
#90
0"
0%
#91
1"
1%
b00001111 $
b00001111 #
#92
0"
0%
#93
1"
1%
b00010000 $
b00010000 #
#94
0"
0%
#95
1"
1%
b00010001 $
b00010001 #
#96
0"
0%
#97
1"
1%
b00010010 $
b00010010 #
#98
0"
0%
#99
1"
1%
b00010011 $
b00010011 #
#100
0"
0%
#101
1"
1%
b00010100 $
b00010100 #
#102
0"
0%
#103
1"
1%
b00010101 $
b00010101 #
#104
0"
0%
#105
1"
1%
b00010110 $
b00010110 #
#106
0"
0%
#107
1"
1%
b00010111 $
b00010111 #
#108
0"
0%
#109
1"
1%
b00011000 $
b00011000 #
#110
0"
0%
#111
1"
1%
b00011001 $
b00011001 #
#112
0"
0%
#113
1"
1%
b00011010 $
b00011010 #
#114
0"
0%
#115
1"
1%
b00011011 $
b00011011 #
#116
0"
0%
#117
1"
1%
b00011100 $
b00011100 #
#118
0"
0%
#119
1"
1%
b00011101 $
b00011101 #
#120
0"
0%
#121
1"
1%
b00011110 $
b00011110 #
#122
0"
0%
#123
1"
1%
b00011111 $
b00011111 #
#124
0"
0%
#125
1"
1%
b00100000 $
b00100000 #
#126
0"
0%
#127
1"
1%
b00100001 $
b00100001 #
#128
0"
0%
#129
1"
1%
b00100010 $
b00100010 #
#130
0"
0%
#131
1"
1%
b00100011 $
b00100011 #
#132
0"
0%
#133
1"
1%
b00100100 $
b00100100 #
#134
0"
0%
#135
1"
1%
b00100101 $
b00100101 #
#136
0"
0%
#137
1"
1%
b00100110 $
b00100110 #
#138
0"
0%
#139
1"
1%
b00100111 $
b00100111 #
#140
0"
0%
#141
1"
1%
b00101000 $
b00101000 #
#142
0"
0%
#143
1"
1%
b00101001 $
b00101001 #
#144
0"
0%
#145
1"
1%
b00101010 $
b00101010 #
#146
0"
0%
#147
1"
1%
b00101011 $
b00101011 #
#148
0"
0%
#149
1"
1%
b00101100 $
b00101100 #
#150
0"
0%
#151
1"
1%
b00101101 $
b00101101 #
#152
0"
0%
#153
1"
1%
b00101110 $
b00101110 #
#154
0"
0%
#155
1"
1%
b00101111 $
b00101111 #
#156
0"
0%
#157
1"
1%
b00110000 $
b00110000 #
#158
0"
0%
#159
1"
1%
b00110001 $
b00110001 #
#160
0"
0%
#161
1"
1%
b00110010 $
b00110010 #
#162
0"
0%
#163
1"
1%
b00110011 $
b00110011 #
#164
0"
0%
#165
1"
1%
b00110100 $
b00110100 #
#166
0"
0%
#167
1"
1%
b00110101 $
b00110101 #
#168
0"
0%
#169
1"
1%
b00110110 $
b00110110 #
#170
0"
0%
#171
1"
1%
b00110111 $
b00110111 #
#172
0"
0%
#173
1"
1%
b00111000 $
b00111000 #
#174
0"
0%
#175
1"
1%
b00111001 $
b00111001 #
#176
0"
0%
#177
1"
1%
b00111010 $
b00111010 #
#178
0"
0%
#179
1"
1%
b00111011 $
b00111011 #
#180
0"
0%
#181
1"
1%
b00111100 $
b00111100 #
#182
0"
0%
#183
1"
1%
b00111101 $
b00111101 #
#184
0"
0%
#185
1"
1%
b00111110 $
b00111110 #
#186
0"
0%
#187
1"
1%
b00111111 $
b00111111 #
#188
0"
0%
#189
1"
1%
b01000000 $
b01000000 #
#190
0"
0%
#191
1"
1%
b01000001 $
b01000001 #
#192
0"
0%
#193
1"
1%
b01000010 $
b01000010 #
#194
0"
0%
#195
1"
1%
b01000011 $
b01000011 #
#196
0"
0%
#197
1"
1%
b01000100 $
b01000100 #
#198
0"
0%
#199
1"
1%
b01000101 $
b01000101 #
#200
0"
0%
#201
1"
1%
b01000110 $
b01000110 #
#202
0"
0%
#203
1"
1%
b01000111 $
b01000111 #
#204
0"
0%
#205
1"
1%
b01001000 $
b01001000 #
#206
0"
0%
#207
1"
1%
b01001001 $
b01001001 #
#208
0"
0%
#209
1"
1%
b01001010 $
b01001010 #
#210
0"
0%
#211
1"
1%
b01001011 $
b01001011 #
#212
0"
0%
#213
1"
1%
b01001100 $
b01001100 #
#214
0"
0%
#215
1"
1%
b01001101 $
b01001101 #
#216
0"
0%
#217
1"
1%
b01001110 $
b01001110 #
#218
0"
0%
#219
1"
1%
b01001111 $
b01001111 #
#220
0"
0%
#221
1"
1%
b01010000 $
b01010000 #
#222
0"
0%
#223
1"
1%
b01010001 $
b01010001 #
#224
0"
0%
#225
1"
1%
b01010010 $
b01010010 #
#226
0"
0%
#227
1"
1%
b01010011 $
b01010011 #
#228
0"
0%
#229
1"
1%
b01010100 $
b01010100 #
#230
0"
0%
#231
1"
1%
b01010101 $
b01010101 #
#232
0"
0%
#233
1"
1%
b01010110 $
b01010110 #
#234
0"
0%
#235
1"
1%
b01010111 $
b01010111 #
#236
0"
0%
#237
1"
1%
b01011000 $
b01011000 #
#238
0"
0%
#239
1"
1%
b01011001 $
b01011001 #
#240
0"
0%
#241
1"
1%
b01011010 $
b01011010 #
#242
0"
0%
#243
1"
1%
b01011011 $
b01011011 #
#244
0"
0%
#245
1"
1%
b01011100 $
b01011100 #
#246
0"
0%
#247
1"
1%
b01011101 $
b01011101 #
#248
0"
0%
#249
1"
1%
b01011110 $
b01011110 #
#250
0"
0%
#251
1"
1%
b01011111 $
b01011111 #
#252
0"
0%
#253
1"
1%
b01100000 $
b01100000 #
#254
0"
0%
#255
1"
1%
b01100001 $
b01100001 #
#256
0"
0%
#257
1"
1%
b01100010 $
b01100010 #
#258
0"
0%
#259
1"
1%
b01100011 $
b01100011 #
#260
0"
0%
#261
1"
1%
b01100100 $
b01100100 #
#262
0"
0%
#263
1"
1%
b01100101 $
b01100101 #
#264
0"
0%
#265
1"
1%
b01100110 $
b01100110 #
#266
0"
0%
#267
1"
1%
b01100111 $
b01100111 #
#268
0"
0%
#269
1"
1%
b01101000 $
b01101000 #
#270
0"
0%
#271
1"
1%
b01101001 $
b01101001 #
#272
0"
0%
#273
1"
1%
b01101010 $
b01101010 #
#274
0"
0%
#275
1"
1%
b01101011 $
b01101011 #
#276
0"
0%
#277
1"
1%
b01101100 $
b01101100 #
#278
0"
0%
#279
1"
1%
b01101101 $
b01101101 #
#280
0"
0%
#281
1"
1%
b01101110 $
b01101110 #
#282
0"
0%
#283
1"
1%
b01101111 $
b01101111 #
#284
0"
0%
#285
1"
1%
b01110000 $
b01110000 #
#286
0"
0%
#287
1"
1%
b01110001 $
b01110001 #
#288
0"
0%
#289
1"
1%
b01110010 $
b01110010 #
#290
0"
0%
#291
1"
1%
b01110011 $
b01110011 #
#292
0"
0%
#293
1"
1%
b01110100 $
b01110100 #
#294
0"
0%
#295
1"
1%
b01110101 $
b01110101 #
#296
0"
0%
#297
1"
1%
b01110110 $
b01110110 #
#298
0"
0%
#299
1"
1%
b01110111 $
b01110111 #
#300
0"
0%
#301
1"
1%
b01111000 $
b01111000 #
#302
0"
0%
#303
1"
1%
b01111001 $
b01111001 #
#304
0"
0%
#305
1"
1%
b01111010 $
b01111010 #
#306
0"
0%
#307
1"
1%
b01111011 $
b01111011 #
#308
0"
0%
#309
1"
1%
b01111100 $
b01111100 #
#310
0"
0%
#311
1"
1%
b01111101 $
b01111101 #
#312
0"
0%
#313
1"
1%
b01111110 $
b01111110 #
#314
0"
0%
#315
1"
1%
b01111111 $
b01111111 #
#316
0"
0%
#317
1"
1%
b10000000 $
b10000000 #
#318
0"
0%
#319
1"
1%
b10000001 $
b10000001 #
#320
0"
0%
#321
1"
1%
b10000010 $
b10000010 #
#322
0"
0%
#323
1"
1%
b10000011 $
b10000011 #
#324
0"
0%
#325
1"
1%
b10000100 $
b10000100 #
#326
0"
0%
#327
1"
1%
b10000101 $
b10000101 #
#328
0"
0%
#329
1"
1%
b10000110 $
b10000110 #
#330
0"
0%
#331
1"
1%
b10000111 $
b10000111 #
#332
0"
0%
#333
1"
1%
b10001000 $
b10001000 #
#334
0"
0%
#335
1"
1%
b10001001 $
b10001001 #
#336
0"
0%
#337
1"
1%
b10001010 $
b10001010 #
#338
0"
0%
#339
1"
1%
b10001011 $
b10001011 #
#340
0"
0%
#341
1"
1%
b10001100 $
b10001100 #
#342
0"
0%
#343
1"
1%
b10001101 $
b10001101 #
#344
0"
0%
#345
1"
1%
b10001110 $
b10001110 #
#346
0"
0%
#347
1"
1%
b10001111 $
b10001111 #
#348
0"
0%
#349
1"
1%
b10010000 $
b10010000 #
#350
0"
0%
#351
1"
1%
b10010001 $
b10010001 #
#352
0"
0%
#353
1"
1%
b10010010 $
b10010010 #
#354
0"
0%
#355
1"
1%
b10010011 $
b10010011 #
#356
0"
0%
#357
1"
1%
b10010100 $
b10010100 #
#358
0"
0%
#359
1"
1%
b10010101 $
b10010101 #
#360
0"
0%
#361
1"
1%
b10010110 $
b10010110 #
#362
0"
0%
#363
1"
1%
b10010111 $
b10010111 #
#364
0"
0%
#365
1"
1%
b10011000 $
b10011000 #
#366
0"
0%
#367
1"
1%
b10011001 $
b10011001 #
#368
0"
0%
#369
1"
1%
b10011010 $
b10011010 #
#370
0"
0%
#371
1"
1%
b10011011 $
b10011011 #
#372
0"
0%
#373
1"
1%
b10011100 $
b10011100 #
#374
0"
0%
#375
1"
1%
b10011101 $
b10011101 #
#376
0"
0%
#377
1"
1%
b10011110 $
b10011110 #
#378
0"
0%
#379
1"
1%
b10011111 $
b10011111 #
#380
0"
0%
#381
1"
1%
b10100000 $
b10100000 #
#382
0"
0%
#383
1"
1%
b10100001 $
b10100001 #
#384
0"
0%
#385
1"
1%
b10100010 $
b10100010 #
#386
0"
0%
#387
1"
1%
b10100011 $
b10100011 #
#388
0"
0%
#389
1"
1%
b10100100 $
b10100100 #
#390
0"
0%
#391
1"
1%
b10100101 $
b10100101 #
#392
0"
0%
#393
1"
1%
b10100110 $
b10100110 #
#394
0"
0%
#395
1"
1%
b10100111 $
b10100111 #
#396
0"
0%
#397
1"
1%
b10101000 $
b10101000 #
#398
0"
0%
#399
1"
1%
b10101001 $
b10101001 #
#400
0"
0%
#401
1"
1%
b10101010 $
b10101010 #
#402
0"
0%
#403
1"
1%
b10101011 $
b10101011 #
#404
0"
0%
#405
1"
1%
b10101100 $
b10101100 #
#406
0"
0%
#407
1"
1%
b10101101 $
b10101101 #
#408
0"
0%
#409
1"
1%
b10101110 $
b10101110 #
#410
0"
0%
#411
1"
1%
b10101111 $
b10101111 #
#412
0"
0%
#413
1"
1%
b10110000 $
b10110000 #
#414
0"
0%
#415
1"
1%
b10110001 $
b10110001 #
#416
0"
0%
#417
1"
1%
b10110010 $
b10110010 #
#418
0"
0%
#419
1"
1%
b10110011 $
b10110011 #
#420
0"
0%
#421
1"
1%
b10110100 $
b10110100 #
#422
0"
0%
#423
1"
1%
b10110101 $
b10110101 #
#424
0"
0%
#425
1"
1%
b10110110 $
b10110110 #
#426
0"
0%
#427
1"
1%
b10110111 $
b10110111 #
#428
0"
0%
#429
1"
1%
b10111000 $
b10111000 #
#430
0"
0%
#431
1"
1%
b10111001 $
b10111001 #
#432
0"
0%
#433
1"
1%
b10111010 $
b10111010 #
#434
0"
0%
#435
1"
1%
b10111011 $
b10111011 #
#436
0"
0%
#437
1"
1%
b10111100 $
b10111100 #
#438
0"
0%
#439
1"
1%
b10111101 $
b10111101 #
#440
0"
0%
#441
1"
1%
b10111110 $
b10111110 #
#442
0"
0%
#443
1"
1%
b10111111 $
b10111111 #
#444
0"
0%
#445
1"
1%
b11000000 $
b11000000 #
#446
0"
0%
#447
1"
1%
b11000001 $
b11000001 #
#448
0"
0%
#449
1"
1%
b11000010 $
b11000010 #
#450
0"
0%
#451
1"
1%
b11000011 $
b11000011 #
#452
0"
0%
#453
1"
1%
b11000100 $
b11000100 #
#454
0"
0%
#455
1"
1%
b11000101 $
b11000101 #
#456
0"
0%
#457
1"
1%
b11000110 $
b11000110 #
#458
0"
0%
#459
1"
1%
b11000111 $
b11000111 #
#460
0"
0%
#461
1"
1%
b11001000 $
b11001000 #
#462
0"
0%
#463
1"
1%
b11001001 $
b11001001 #
#464
0"
0%
#465
1"
1%
b11001010 $
b11001010 #
#466
0"
0%
#467
1"
1%
b11001011 $
b11001011 #
#468
0"
0%
#469
1"
1%
b11001100 $
b11001100 #
#470
0"
0%
#471
1"
1%
b11001101 $
b11001101 #
#472
0"
0%
#473
1"
1%
b11001110 $
b11001110 #
#474
0"
0%
#475
1"
1%
b11001111 $
b11001111 #
#476
0"
0%
#477
1"
1%
b11010000 $
b11010000 #
#478
0"
0%
#479
1"
1%
b11010001 $
b11010001 #
#480
0"
0%
#481
1"
1%
b11010010 $
b11010010 #
#482
0"
0%
#483
1"
1%
b11010011 $
b11010011 #
#484
0"
0%
#485
1"
1%
b11010100 $
b11010100 #
#486
0"
0%
#487
1"
1%
b11010101 $
b11010101 #
#488
0"
0%
#489
1"
1%
b11010110 $
b11010110 #
#490
0"
0%
#491
1"
1%
b11010111 $
b11010111 #
#492
0"
0%
#493
1"
1%
b11011000 $
b11011000 #
#494
0"
0%
#495
1"
1%
b11011001 $
b11011001 #
#496
0"
0%
#497
1"
1%
b11011010 $
b11011010 #
#498
0"
0%
#499
1"
1%
b11011011 $
b11011011 #
#500
0"
0%
#501
1"
1%
b11011100 $
b11011100 #
#502
0"
0%
#503
1"
1%
b11011101 $
b11011101 #
#504
0"
0%
#505
1"
1%
b11011110 $
b11011110 #
#506
0"
0%
#507
1"
1%
b11011111 $
b11011111 #
#508
0"
0%
#509
1"
1%
b11100000 $
b11100000 #
#510
0"
0%
#511
1"
1%
b11100001 $
b11100001 #
#512
0"
0%
#513
1"
1%
b11100010 $
b11100010 #
#514
0"
0%
#515
1"
1%
b11100011 $
b11100011 #
#516
0"
0%
#517
1"
1%
b11100100 $
b11100100 #
#518
0"
0%
#519
1"
1%
b11100101 $
b11100101 #
#520
0"
0%
#521
1"
1%
b11100110 $
b11100110 #
#522
0"
0%
#523
1"
1%
b11100111 $
b11100111 #
#524
0"
0%
#525
1"
1%
b11101000 $
b11101000 #
#526
0"
0%
#527
1"
1%
b11101001 $
b11101001 #
#528
0"
0%
#529
1"
1%
b11101010 $
b11101010 #
#530
0"
0%
#531
1"
1%
b11101011 $
b11101011 #
#532
0"
0%
#533
1"
1%
b11101100 $
b11101100 #
#534
0"
0%
#535
1"
1%
b11101101 $
b11101101 #
#536
0"
0%
#537
1"
1%
b11101110 $
b11101110 #
#538
0"
0%
#539
1"
1%
b11101111 $
b11101111 #
#540
0"
0%
#541
1"
1%
b11110000 $
b11110000 #
#542
0"
0%
#543
1"
1%
b11110001 $
b11110001 #
#544
0"
0%
#545
1"
1%
b11110010 $
b11110010 #
#546
0"
0%
#547
1"
1%
b11110011 $
b11110011 #
#548
0"
0%
#549
1"
1%
b11110100 $
b11110100 #
#550
0"
0%
#551
1"
1%
b11110101 $
b11110101 #
#552
0"
0%
#553
1"
1%
b11110110 $
b11110110 #
#554
0"
0%
#555
1"
1%
b11110111 $
b11110111 #
#556
0"
0%
#557
1"
1%
b11111000 $
b11111000 #
#558
0"
0%
#559
1"
1%
b11111001 $
b11111001 #
#560
0"
0%
#561
1"
1%
b11111010 $
b11111010 #
#562
0"
0%
#563
1"
1%
b11111011 $
b11111011 #
#564
0"
0%
#565
1"
1%
b11111100 $
b11111100 #
#566
0"
0%
#567
1"
1%
b11111101 $
b11111101 #
#568
0"
0%
#569
1"
1%
b11111110 $
b11111110 #
#570
0"
0%
#571
1"
1%
b11111111 $
b11111111 #
#572
0"
0%
#573
1"
1%
b00000000 $
b00000000 #
